,,,,,,
,,,,,,
,,,,,,
,id,nombre,precio antes,precio venta,descripcion ,imagen
,1,chamarra,50,70,qtwtq,pantalon1.jpeg
,2,camisa,20,45,qtwetyqwryery,chalina2.jpeg
,3,pantalon,60,25,eryeryery,chalina1.jpeg
